18,27,1,3,1,23,1
16,43,1,4,1,23,1
16,34,2,4,1,24,1
18,37,2,2,2,11,3
18,38,2,2,1,10,1
18,59,2,2,3,15,4
17,33,1,3,1,23,1
18,50,1,3,2,18,3
1,16,1,1,1,14,1
1,41,1,1,1,14,1
6,55,2,3,1,18,1
6,24,1,3,2,20,3
6,22,1,3,1,15,1
6,33,1,3,1,16,1
6,28,2,3,1,13,1
6,27,1,3,1,15,1
6,6,1,3,1,13,1
6,29,2,3,1,17,1
6,62,2,3,1,24,1
6,39,2,3,1,13,1
6,12,2,3,1,13,1
6,52,1,3,1,18,1
6,70,2,3,1,28,1
6,28,2,3,1,17,1
6,51,1,2,1,18,1
6,36,2,3,1,14,1
18,25,2,3,1,24,1
6,6,1,3,1,14,1
6,68,1,3,1,24,1
6,29,2,3,1,14,1
6,24,2,3,1,14,1
6,54,1,3,1,14,1
6,34,2,3,1,21,1
6,30,1,3,1,14,1
6,31,2,3,1,14,1
6,40,1,3,1,19,1
6,30,2,3,1,20,1
6,42,1,3,1,19,1
6,26,2,3,1,16,1
6,64,1,3,1,24,1
6,15,2,3,1,19,1
6,22,1,3,1,25,1
6,18,1,3,1,25,1
6,11,1,3,1,19,1
6,8,2,3,1,19,1
6,10,1,3,1,14,1
6,20,2,3,1,15,1
6,21,1,3,1,14,1
6,18,1,3,1,19,1
6,39,1,3,1,19,1
6,60,2,3,1,18,1
6,57,1,3,1,18,1
6,50,1,3,1,21,1
6,27,1,3,1,21,1
6,24,2,3,1,21,1
18,24,2,3,1,27,1
6,59,1,3,1,23,1
6,56,2,3,1,21,1
6,52,1,2,1,21,1
6,48,1,3,1,14,1
6,53,1,3,1,24,1
6,31,2,2,1,14,1
6,31,2,2,1,23,1
6,58,1,3,1,21,1
6,62,2,2,1,22,1
6,44,2,2,1,22,1
6,31,1,3,1,17,1
6,27,1,3,1,14,1
6,39,1,3,1,14,1
6,42,1,3,1,14,1
6,29,1,3,1,18,1
6,15,2,3,1,17,1
6,35,2,3,1,15,1
6,39,1,3,1,15,1
6,44,1,3,1,19,1
6,11,2,3,1,15,1
6,40,2,3,1,15,1
6,12,2,3,1,15,1
6,38,1,3,1,15,1
6,47,1,3,1,28,1
6,22,2,3,1,19,1
6,38,2,3,1,25,1
6,32,1,3,1,23,1
6,29,1,3,1,36,1
6,45,1,3,1,43,1
6,79,1,3,4,27,2
6,70,1,3,1,14,1
6,47,2,3,2,13,3
6,42,1,3,1,16,1
6,17,2,3,1,16,1
6,44,1,3,1,15,1
6,10,2,3,1,12,1
6,25,1,3,1,20,1
20,46,1,3,4,18,2
24,78,1,2,3,20,4
31,69,1,3,2,17,3
31,73,2,3,4,19,2
22,1,2,2,1,9,1
31,77,2,3,1,18,1
31,34,2,3,1,12,1
31,37,1,3,1,13,1
31,43,1,3,1,16,1
31,32,1,3,1,15,1
31,44,2,3,1,13,1
24,45,2,2,1,23,1
25,23,1,3,1,15,1
25,64,1,3,1,13,1
11,79,2,2,4,21,2
19,9,1,3,1,12,1
19,30,2,3,1,11,1
19,46,1,3,1,12,1
19,61,2,3,2,12,3
19,47,2,3,2,22,3
19,59,2,3,3,16,4
19,76,1,3,4,10,2
19,69,2,3,4,2,2
19,38,1,3,1,51,1
19,23,1,3,1,46,1
19,90,2,3,1,37,1
19,49,2,3,1,37,1
19,4,1,3,1,42,3
19,19,1,3,1,25,3
19,25,2,3,2,35,3
19,4,2,3,2,35,3
31,51,1,3,1,13,1
31,21,2,2,1,13,1
31,39,2,2,1,13,1
31,7,2,2,1,13,1
31,31,1,3,1,18,1
31,53,1,3,1,13,1
31,79,2,3,2,25,3
9,16,1,3,1,19,1
31,64,2,3,3,29,4
31,33,2,3,1,19,1
31,32,2,2,1,16,1
31,26,2,2,1,13,1
18,18,2,2,1,12,1
31,28,2,2,1,13,1
6,10,2,3,1,33,1
6,43,2,3,1,28,1
2,39,2,3,1,9,1
31,43,2,3,1,12,1
31,26,1,3,1,11,1
2,26,1,3,1,12,1
31,59,1,3,1,25,1
2,10,1,3,1,15,1
31,29,2,3,1,18,1
6,23,2,3,1,15,1
2,72,1,2,1,10,1
2,74,2,3,2,11,3
2,49,2,2,2,22,3
2,29,1,2,1,9,1
2,81,1,2,1,13,1
2,43,2,2,1,19,1
2,22,2,2,1,11,1
2,33,1,2,1,13,1
2,88,1,2,4,6,2
2,48,1,3,1,16,1
2,41,1,3,1,9,1
2,18,1,2,1,14,1
2,55,1,3,2,10,3
2,84,2,2,2,13,3
6,31,1,3,1,11,1
11,34,2,2,1,25,1
6,29,1,3,1,10,1
31,34,2,3,1,18,1
31,39,1,3,1,11,1
31,26,2,3,1,16,1
5,48,1,3,1,18,1
5,36,1,2,1,7,1
31,57,2,2,1,13,1
31,18,1,3,3,8,4
17,27,2,2,1,28,1
17,5,2,2,1,8,1
26,18,1,3,1,13,1
26,18,1,3,1,13,1
26,35,2,2,1,9,1
26,33,1,3,1,9,1
26,31,1,3,1,10,1
26,30,2,3,1,10,1
6,24,1,1,1,14,1
6,13,1,3,1,26,1
6,37,2,3,1,20,1
6,45,2,3,1,21,1
6,49,1,3,1,19,1
6,43,2,3,1,19,1
6,39,1,3,1,20,1
6,67,1,3,1,20,1
6,10,1,3,1,17,1
6,38,1,3,2,23,3
6,57,2,3,1,27,1
6,46,1,3,1,28,1
6,13,2,3,1,19,1
6,6,2,3,1,20,1
6,62,1,3,1,24,1
6,49,1,3,1,16,1
6,33,1,3,1,17,1
6,43,1,3,1,18,1
6,13,2,3,1,16,1
6,8,2,3,1,16,1
6,41,1,3,1,14,1
6,5,1,3,1,19,1
6,47,1,3,1,19,1
6,75,1,3,1,24,1
6,57,2,3,1,20,1
6,25,1,3,1,20,1
6,72,2,3,1,14,1
6,51,2,3,1,15,1
6,27,1,3,1,18,1
6,30,1,3,1,14,1
6,53,2,3,1,21,1
6,62,2,3,2,19,3
18,57,2,3,1,16,1
6,43,1,3,1,13,1
6,21,1,3,1,13,1
6,46,2,3,1,13,1
6,57,2,2,1,13,1
6,80,1,3,1,24,1
6,4,2,3,1,13,1
6,15,2,3,1,17,1
6,21,2,3,1,17,1
6,6,2,3,1,20,1
6,14,2,3,1,16,1
6,40,2,3,1,20,1
6,39,1,3,1,16,1
6,24,1,3,1,42,1
6,63,1,3,1,13,1
6,22,2,3,1,36,1
6,59,1,3,1,41,1
6,22,1,3,1,13,1
6,28,2,3,1,26,1
6,32,1,3,1,19,1
6,37,1,3,1,19,1
6,73,1,3,1,20,1
6,42,2,3,1,13,1
6,62,2,3,1,21,1
6,34,1,3,1,16,1
6,4,1,3,1,24,1
6,37,2,3,1,19,1
6,70,2,3,1,14,1
6,43,2,3,1,26,1
6,41,1,3,1,26,1
6,61,2,2,1,28,1
6,13,2,3,1,21,1
6,32,2,3,1,27,1
6,45,2,3,1,14,1
6,47,1,3,1,14,1
6,24,2,3,1,14,1
18,36,1,3,1,14,1
6,24,1,3,1,20,1
6,30,2,3,1,14,1
6,37,1,3,1,21,1
6,36,2,3,1,20,1
6,11,1,3,1,13,1
6,17,2,3,1,38,1
6,47,2,3,1,13,1
6,62,1,1,1,13,1
6,36,2,1,1,13,1
18,39,1,3,1,19,1
6,41,2,3,1,13,1
6,26,2,3,1,14,1
6,28,2,3,2,44,3
6,20,1,3,1,31,1
6,62,1,3,1,19,1
6,47,2,3,2,22,3
6,51,2,3,1,28,1
6,85,2,3,1,12,1
6,27,2,3,1,23,1
6,30,2,3,1,21,1
6,51,1,3,1,36,1
6,13,2,3,1,12,1
6,22,1,3,1,23,1
6,103,1,3,2,14,3
6,10,2,3,1,15,1
6,21,2,3,1,20,1
6,33,1,3,1,19,1
6,32,2,3,1,15,1
6,56,1,3,1,22,1
6,38,2,3,1,21,1
6,30,1,3,1,14,1
6,35,1,3,1,13,1
6,36,1,3,1,13,1
6,23,1,3,1,16,1
6,40,2,3,1,13,1
6,32,1,3,1,12,1
6,74,2,3,1,13,1
6,23,1,3,1,21,1
6,12,1,3,1,21,1
6,85,1,3,1,15,1
6,23,1,3,1,14,1
6,50,2,3,1,13,1
6,43,2,3,1,13,1
6,29,2,3,1,14,1
6,60,2,3,2,13,3
6,35,1,3,1,14,1
22,42,2,2,1,17,1
22,29,2,2,1,17,1
22,38,2,2,1,23,1
22,20,2,2,1,18,1
22,27,1,2,1,29,1
30,25,1,2,1,14,1
30,38,2,2,1,12,1
13,49,2,3,1,11,1
18,54,2,3,1,13,1
22,39,2,2,1,15,1
18,54,2,2,1,14,1
2,35,2,2,1,9,1
12,50,2,2,1,10,1
2,6,2,2,1,13,1
2,51,1,2,1,10,1
2,29,1,2,1,15,1
6,51,1,3,1,17,1
21,36,2,3,1,15,1
31,67,2,3,1,19,1
31,29,1,3,1,26,1
10,25,2,2,1,18,1
10,36,1,2,1,12,1
27,29,1,3,1,18,1
27,64,2,3,3,18,4
27,19,2,3,1,21,1
8,31,2,3,1,15,1
25,65,1,3,1,14,1
21,39,1,3,1,26,1
31,71,1,3,1,13,1
31,34,2,3,1,22,1
31,28,1,3,1,23,1
31,21,1,3,1,10,1
31,30,2,3,1,12,1
31,57,1,3,1,13,1
31,32,1,3,1,13,1
31,36,2,3,1,11,1
31,73,2,3,2,15,3
31,35,2,1,1,25,1
31,42,2,3,1,25,1
31,73,2,3,4,14,2
31,58,1,3,1,12,1
31,82,1,3,2,23,3
31,79,1,3,1,12,1
31,49,1,3,1,19,1
31,57,2,3,2,17,3
31,29,2,3,1,32,1
31,31,2,3,1,16,1
31,21,1,3,1,16,1
31,4,2,3,1,16,1
31,56,2,3,1,19,1
31,64,1,3,1,31,1
31,26,1,3,1,18,1
12,68,2,3,1,8,1
31,39,1,3,1,12,1
31,58,1,3,1,24,1
31,89,1,3,1,10,1
15,46,2,3,3,10,4
15,30,1,2,1,18,1
12,61,1,3,1,7,1
12,49,2,3,1,7,1
7,29,2,3,1,16,1
12,51,2,3,1,9,1
7,52,2,3,1,9,1
12,21,2,3,1,15,1
12,62,2,3,1,15,1
12,10,1,3,1,6,1
12,10,1,3,1,11,1
12,8,1,3,1,6,1
2,32,2,2,1,11,1
2,22,1,2,1,15,1
2,9,1,2,1,24,1
4,71,1,3,1,10,1
4,64,1,3,1,17,1
5,50,1,3,1,14,1
31,64,2,3,1,13,1
31,25,2,3,1,13,1
31,50,1,3,1,11,1
2,20,2,3,1,11,1
6,33,2,3,1,22,1
18,26,2,2,1,10,1
2,23,1,3,1,12,1
31,27,2,3,2,13,3
31,23,2,3,1,13,1
31,26,1,3,2,10,3
19,40,1,3,1,12,1
23,41,2,3,1,17,1
23,29,2,3,4,7,2
23,4,1,3,1,12,1
23,39,2,3,2,20,3
31,7,2,3,1,14,1
31,49,2,3,2,18,3
31,32,1,3,1,19,1
31,34,2,3,1,18,1
31,33,1,3,1,18,1
31,46,1,3,1,14,1
31,12,1,3,1,15,1
31,15,2,3,1,10,1
31,26,2,3,1,15,1
31,62,2,3,1,15,1
25,76,2,3,1,11,1
22,27,2,2,1,16,1
22,32,1,2,1,20,1
22,65,2,2,1,15,1
22,58,2,2,1,12,1
18,33,1,2,1,10,1
23,18,1,3,1,21,1
31,27,1,3,1,20,1
31,26,2,3,1,19,1
31,47,1,3,1,12,1
31,15,2,3,1,14,1
2,71,2,3,1,17,1
2,1,2,3,1,10,1
2,23,1,3,1,10,1
6,38,1,3,1,19,1
6,33,1,3,1,9,1
6,57,2,3,1,29,1
6,37,1,3,1,18,1
6,53,1,3,1,12,1
6,36,2,3,1,10,1
6,59,2,3,2,16,3
6,48,2,3,1,17,1
6,39,1,3,1,17,1
6,29,2,3,1,37,1
6,59,2,3,2,11,3
6,88,2,3,4,8,2
6,68,2,3,2,15,3
6,53,1,3,2,13,3
6,45,2,3,2,20,3
6,40,1,3,1,11,1
6,33,2,3,1,16,1
6,55,2,3,1,19,1
6,45,1,3,1,11,1
6,31,2,3,1,19,1
6,51,1,3,1,9,1
6,51,2,3,1,15,1
6,84,2,3,2,10,3
6,23,2,3,1,26,1
6,28,1,3,1,11,1
6,17,2,3,1,20,1
6,51,1,3,1,9,1
6,64,2,3,2,12,3
6,43,1,3,1,30,1
6,25,1,3,1,9,1
6,30,2,3,1,23,1
6,35,2,3,1,22,1
6,68,2,3,1,24,1
6,20,2,3,2,27,3
6,64,2,3,2,23,3
6,46,1,3,1,20,1
6,74,2,3,1,19,1
6,21,1,3,1,19,1
6,51,2,3,1,19,1
6,25,2,3,1,24,1
6,53,1,3,1,24,1
6,62,2,3,1,19,1
6,52,2,3,1,30,1
6,20,1,3,1,30,1
6,28,1,3,2,25,3
6,12,1,3,1,18,1
6,38,2,3,2,8,3
6,78,2,3,1,22,1
6,28,2,3,1,18,1
6,37,2,1,3,25,4
6,51,1,3,1,18,1
6,23,1,3,1,20,1
6,43,2,3,1,26,1
6,62,2,2,1,18,1
6,25,2,2,1,18,1
6,17,2,3,1,19,1
6,64,1,3,1,19,1
6,20,1,3,1,24,1
6,49,1,3,1,18,1
6,14,1,3,1,20,1
6,35,2,3,1,12,1
6,34,1,3,1,19,1
6,58,1,3,1,49,1
6,3,2,3,1,24,1
6,1,1,3,1,31,1
6,54,2,3,2,16,3
6,55,2,3,1,11,1
6,51,1,3,1,11,1
6,19,1,3,1,17,1
6,25,2,3,1,17,1
18,1,2,3,4,18,2
6,58,1,3,1,19,1
6,39,2,3,1,19,1
6,35,2,3,1,19,1
6,65,2,3,1,19,1
6,60,2,3,1,19,1
6,68,2,3,1,19,1
6,23,1,3,1,37,1
6,25,1,3,1,24,1
6,51,1,3,1,41,1
6,18,1,3,1,28,1
6,43,2,3,1,41,1
6,27,2,3,1,38,1
6,47,1,3,1,31,1
31,51,1,3,2,11,3
23,5,2,2,1,5,1
23,13,2,2,1,5,1
23,22,2,2,1,5,1
23,63,1,2,1,5,1
23,16,2,2,1,5,1
23,8,1,2,1,5,1
23,54,1,2,1,5,1
23,13,2,2,1,5,1
23,41,1,2,1,5,1
23,14,1,2,1,5,1
9,48,2,2,1,19,1
31,64,1,2,1,15,1
31,95,1,3,2,16,3
6,48,2,3,2,6,3
6,37,1,3,1,11,1
2,27,1,2,1,6,1
31,52,2,2,1,12,1
31,71,2,2,1,12,1
31,30,2,3,1,9,1
28,63,1,2,1,12,1
31,37,1,2,1,14,1
5,38,1,3,1,15,1
5,67,1,3,3,10,4
7,75,2,3,3,17,4
5,86,2,3,4,6,2
5,45,1,2,1,8,1
12,41,1,3,1,11,1
12,74,1,3,2,14,3
12,42,2,3,2,7,3
31,14,2,3,1,12,1
31,24,1,2,1,10,1
31,20,1,2,1,12,1
31,66,1,2,2,12,3
31,4,2,2,2,7,3
18,25,1,2,1,9,1
18,43,2,2,1,8,1
31,35,2,3,1,26,1
31,55,2,2,1,14,1
31,35,1,2,1,14,1
31,56,1,2,1,17,1
31,34,1,3,1,15,1
31,27,1,2,1,11,1
26,43,2,2,1,11,1
26,60,2,3,1,12,1
26,45,1,3,1,13,1
26,35,1,3,1,13,1
26,12,1,3,1,8,1
18,60,1,2,1,8,1
31,30,1,3,1,11,1
31,52,2,3,1,12,1
31,51,1,2,1,26,1
31,39,1,2,1,41,1
31,28,1,2,1,11,1
31,25,2,2,1,8,1
31,54,1,2,1,9,1
2,34,1,3,1,20,1
2,67,2,2,1,5,1
31,72,1,2,1,10,1
27,47,2,1,2,18,3
27,49,2,3,1,13,1
27,43,1,3,1,13,1
27,56,1,3,1,17,1
27,41,2,3,2,18,3
27,32,2,3,1,16,1
27,29,1,3,1,23,1
27,60,2,3,2,13,3
27,25,1,3,1,15,1
30,20,2,2,1,7,1
30,45,1,2,1,18,1
30,37,2,2,1,8,1
19,47,1,2,1,17,1
19,49,1,2,1,4,1
9,27,2,2,1,14,1
31,32,2,2,1,8,1
31,28,1,2,1,12,1
31,28,2,3,1,9,1
16,46,1,4,1,24,1
27,36,1,3,1,13,1
27,31,2,3,1,13,1
27,33,2,3,1,13,1
27,42,1,3,2,27,3
27,28,1,3,1,19,1
22,35,2,2,1,23,1
22,40,2,2,1,15,1
27,31,1,3,1,12,1
1,54,2,3,2,20,3
22,39,2,3,1,11,1
1,30,2,1,1,10,1
21,33,2,3,1,17,1
21,31,2,3,1,19,1
6,39,1,3,1,37,1
6,28,2,3,1,19,1
6,41,1,3,1,33,1
6,11,2,3,1,27,1
6,36,1,1,1,35,1
6,12,2,3,1,12,1
6,34,1,2,1,13,1
6,35,1,3,1,24,1
6,15,2,2,1,12,1
6,27,2,3,1,18,1
6,73,1,3,1,15,1
6,27,2,1,1,39,1
6,29,1,3,1,16,1
6,53,2,3,1,25,1
6,55,1,3,1,17,1
6,39,2,3,1,13,1
6,29,2,3,1,16,1
6,34,1,3,1,18,1
6,30,2,2,1,21,1
6,18,1,2,1,15,1
6,55,1,2,1,21,1
6,32,1,3,1,12,1
6,75,2,3,1,13,1
6,77,1,3,1,13,1
6,53,1,3,1,13,1
6,32,2,3,1,18,1
6,8,1,3,1,13,1
6,34,1,3,1,24,1
6,72,2,3,2,28,3
6,28,1,3,1,28,1
6,60,1,3,1,21,1
6,29,1,3,1,20,1
6,55,1,1,1,33,1
6,27,1,2,1,26,1
6,64,2,3,1,23,1
6,35,1,2,1,36,1
6,42,2,3,2,31,3
6,61,2,3,1,25,1
6,57,1,3,1,23,1
6,45,1,3,1,25,1
6,42,1,3,1,28,1
6,37,1,3,1,23,1
6,69,1,3,1,18,1
6,14,1,3,1,18,1
6,17,2,3,1,18,1
6,70,1,3,1,8,1
6,40,2,3,1,13,1
6,31,1,3,1,9,1
6,36,2,3,1,15,1
6,30,2,3,1,18,1
6,35,1,3,1,21,1
6,10,2,3,1,18,1
6,37,2,3,1,22,1
6,23,2,3,1,19,1
6,30,2,3,1,24,1
6,63,1,3,1,24,1
6,37,1,3,1,24,1
6,40,1,1,1,30,1
6,24,1,3,1,29,1
6,28,1,3,1,35,1
6,39,2,3,1,42,1
6,33,1,3,1,23,1
6,54,2,1,1,33,1
6,29,2,3,1,35,1
6,8,1,2,1,18,1
6,55,1,3,1,17,1
6,60,2,3,1,11,1
6,22,2,3,1,11,1
6,55,1,3,2,12,3
6,30,2,3,2,12,3
6,77,2,3,2,16,3
6,82,1,3,2,14,3
6,46,1,3,1,18,1
6,67,2,2,1,37,1
6,30,1,3,1,22,1
6,21,1,3,1,14,1
6,47,1,3,1,20,1
6,55,1,3,1,15,1
6,24,1,3,1,12,1
6,5,1,3,1,19,1
30,26,2,2,1,22,1
27,34,2,2,1,19,1
27,33,2,2,2,15,3
27,45,1,2,1,13,1
27,33,1,3,1,14,1
28,28,1,3,1,16,1
28,60,2,3,4,0,2
2,44,1,2,1,11,1
2,19,1,2,1,12,1
2,20,1,2,1,3,1
2,28,1,2,1,9,1
2,28,1,2,1,11,1
2,23,1,2,1,6,1
2,32,2,2,1,7,1
2,31,1,2,1,17,1
2,32,1,2,1,9,1
2,22,1,2,1,18,1
2,24,1,2,1,3,1
2,25,1,2,1,17,1
2,37,1,2,1,9,1
2,38,2,2,1,10,1
31,40,2,3,1,17,1
31,39,1,3,1,14,1
31,45,1,3,1,12,1
31,59,2,3,2,14,3
2,38,2,2,1,3,1
22,56,2,2,1,8,1
22,28,2,2,1,12,1
22,43,2,2,1,8,1
22,47,2,2,1,8,1
22,27,2,2,1,3,1
22,42,2,2,1,9,1
22,44,2,2,1,10,1
22,28,2,2,1,8,1
22,52,2,2,1,8,1
22,46,2,2,1,11,1
22,20,2,2,1,3,1
22,45,2,2,1,8,1
22,36,2,2,1,12,1
22,34,2,2,1,12,1
22,44,2,2,1,14,1
22,21,2,2,1,11,1
22,29,2,2,1,11,1
22,28,2,2,1,12,1
22,37,2,2,1,8,1
22,29,2,2,1,3,1
22,46,2,2,1,8,1
22,29,2,2,1,15,1
22,32,2,2,1,14,1
22,42,2,2,1,9,1
22,43,2,2,1,12,1
22,67,2,2,1,6,1
22,49,2,2,1,8,1
22,33,2,2,1,9,1
22,27,2,2,1,12,1
22,31,2,2,1,12,1
22,35,2,2,1,11,1
22,43,2,2,1,11,1
22,23,2,2,1,10,1
22,36,2,2,1,9,1
22,25,2,2,1,8,1
22,40,2,2,1,3,1
22,25,2,2,1,9,1
22,49,2,2,1,6,1
18,51,1,3,1,7,1
26,37,2,2,1,8,1
26,14,2,2,1,8,1
26,39,1,2,1,7,1
26,57,1,2,1,8,1
26,25,1,2,1,10,1
31,35,2,3,1,5,1
22,48,2,3,1,11,1
22,33,2,3,1,8,1
6,52,1,3,1,17,1
6,53,2,3,1,26,1
2,60,1,2,1,7,1
31,28,1,3,1,6,1
31,45,2,3,1,7,1
31,7,1,3,1,7,1
31,35,2,3,1,7,1
31,16,1,3,1,11,1
31,22,2,3,1,7,1
2,62,1,2,1,11,1
31,31,1,3,1,9,1
6,42,1,3,1,6,1
18,30,1,3,1,10,1
26,28,2,2,1,7,1
2,26,1,3,1,7,1
5,14,1,2,1,4,1
27,29,1,3,1,19,1
2,30,2,2,1,3,1
2,21,1,2,1,11,1
31,28,2,3,1,10,1
31,74,2,3,1,8,1
31,57,1,3,1,7,1
31,35,1,3,1,10,1
31,82,2,3,2,21,3
31,27,2,3,1,11,1
31,45,2,1,1,6,1
2,19,2,2,1,6,1
2,24,2,3,1,16,1
2,25,1,2,1,9,1
2,38,2,2,1,8,1
30,39,1,2,1,13,1
30,39,1,2,1,14,1
30,24,2,2,1,36,1
30,29,1,2,1,19,1
2,20,2,2,1,6,1
2,44,1,2,1,15,1
2,58,2,2,1,16,1
5,49,2,3,1,7,1
27,64,1,3,1,11,1
27,9,2,3,1,12,1
17,87,2,3,2,13,3
27,38,1,3,1,11,1
27,89,2,3,2,13,3
24,11,2,2,1,16,1
6,30,2,2,1,23,1
6,55,1,3,1,31,1
6,27,2,3,1,21,1
6,22,1,3,1,31,1
6,35,2,3,1,18,1
6,4,1,2,1,17,1
6,37,1,3,1,24,1
6,25,2,3,1,27,1
6,14,1,2,1,17,1
6,41,1,3,1,26,1
6,23,1,3,1,20,1
6,39,1,3,1,24,1
6,66,1,3,1,24,1
6,25,2,3,1,19,1
6,37,2,3,1,21,1
6,73,2,3,2,28,3
6,24,2,3,1,23,1
6,60,1,3,2,26,3
6,27,2,3,1,18,1
6,49,2,2,1,24,1
6,7,2,3,1,18,1
6,42,2,3,1,20,1
6,37,1,3,1,19,1
6,58,2,3,1,18,1
6,23,2,3,1,21,1
6,59,1,3,1,17,1
6,56,1,3,1,23,1
6,33,1,3,1,24,1
6,46,2,3,1,20,1
6,50,1,3,1,18,1
6,39,2,3,1,19,1
6,21,2,3,1,28,1
6,43,1,3,1,22,1
6,49,2,3,1,16,1
6,49,1,2,1,19,1
6,34,2,3,1,21,1
6,30,1,3,1,19,1
6,57,1,3,1,15,1
6,59,2,3,1,22,1
6,48,1,3,1,15,1
6,29,1,3,1,13,1
6,18,1,3,1,15,1
6,72,1,3,1,14,1
6,47,1,3,1,15,1
6,26,1,3,1,12,1
6,26,2,3,1,10,1
6,69,2,3,2,12,3
6,63,1,3,1,23,1
6,23,2,3,1,10,1
6,37,1,3,1,10,1
6,37,1,1,1,35,1
6,46,1,3,1,15,1
6,50,1,3,1,15,1
6,33,2,3,1,19,1
6,21,2,3,1,23,1
6,10,2,3,1,32,1
6,65,2,3,1,18,1
6,12,1,3,1,12,1
6,31,2,3,1,14,1
6,28,1,3,1,17,1
6,56,1,3,1,11,1
6,56,2,3,1,6,1
6,63,1,3,1,11,1
6,58,2,3,1,15,1
6,29,2,3,1,19,1
6,42,1,3,1,12,1
6,30,2,3,1,16,1
6,21,1,3,1,16,1
6,18,1,3,1,16,1
6,46,1,3,1,19,1
6,43,1,3,1,10,1
6,28,1,3,1,12,1
6,47,1,3,1,9,1
6,25,2,3,1,15,1
6,59,1,3,2,9,3
6,47,2,3,1,8,1
6,43,2,3,1,17,1
6,36,2,3,1,14,1
6,39,2,2,2,14,3
6,27,2,3,1,9,1
6,39,2,3,1,44,1
31,64,2,3,1,12,1
31,53,2,3,1,14,1
31,62,1,3,1,11,1
31,24,1,3,1,23,1
31,24,2,3,1,16,1
31,32,2,3,2,14,3
5,49,1,3,1,7,1
31,43,1,3,1,30,1
31,57,1,3,1,17,1
27,50,1,2,1,10,1
